{
    "data_structure": {
        "rectangular": {
            "on": "P"
        }
    },
    "data_format": "fixed_width",
    "description": "AEAREP-3026 replication: Revision of (1950 + flag)",
    "samples": {
        "us1950a": {}
    },
    "variables": {
        "REGION": {},
        "STATEICP": {},
        "STATEFIP": {},
        "COUNTYICP": {},
        "COUNTYFIP": {},
        "METAREA": {},
        "CITY": {},
        "CITYPOP": {},
        "FWAGE2": {},
        "FBUSINC": {},
        "EDSIMIL": {},
        "SLWT": {},
        "SELFWTSL": {},
        "NCHILD": {},
        "SEX": {},
        "AGE": {},
        "BIRTHQTR": {},
        "MARST": {},
        "BIRTHYR": {},
        "RACE": {},
        "BPL": {},
        "FBPL": {},
        "HIGRADE": {},
        "EDUC": {},
        "EMPSTAT": {},
        "LABFORCE": {},
        "OCC": {},
        "OCC1950": {},
        "OCC1990": {},
        "OCC2010": {},
        "IND": {},
        "IND1950": {},
        "IND1990": {},
        "WKSWORK1": {},
        "WKSWORK2": {},
        "HRSWORK1": {},
        "HRSWORK2": {},
        "DURUNEMP": {},
        "INCTOT": {},
        "FTOTINC": {},
        "INCWAGE": {},
        "INCBUSFM": {},
        "INCOTHER": {},
        "MIGRATE1": {},
        "MIGPLAC1": {},
        "MIGMET1": {},
        "MIGTYPE1": {},
        "MIGSEA1": {},
        "SAMEMET1": {},
        "SAMESEA1": {},
        "MIGDIST1": {},
        "QIND": {},
        "QOCC": {},
        "QINCWAGE": {},
        "SEA": {},
        "METRO": {},
        "SIZEPL": {},
        "YEAR": {
            "preselected": true
        },
        "SAMPLE": {
            "preselected": true
        },
        "SERIAL": {
            "preselected": true
        },
        "HHWT": {
            "preselected": true
        },
        "GQ": {
            "preselected": true
        },
        "PERNUM": {
            "preselected": true
        },
        "PERWT": {
            "preselected": true
        }
    },
    "download_links": {},
    "number": 70,
    "status": "completed",
    "collection": "usa","api_version": "beta"
}