{
    "data_structure": {
        "rectangular": {
            "on": "P"
        }
    },
    "data_format": "fixed_width",
    "description": "AEAREP-3026 replication: 1960 + flag",
    "samples": {
        "us1960b": {}
    },
    "variables": {
        "YEAR": {
            "preselected": true
        },
        "SAMPLE": {
            "preselected": true
        },
        "SERIAL": {
            "preselected": true
        },
        "HHWT": {
            "preselected": true
        },
        "REGION": {},
        "STATEICP": {},
        "STATEFIP": {},
        "METAREA": {},
        "PUMA": {},
        "GQ": {
            "preselected": true
        },
        "PHONE": {},
        "TV": {},
        "RADIO": {},
        "AUTOS": {},
        "SAMP1960": {},
        "PERNUM": {
            "preselected": true
        },
        "PERWT": {
            "preselected": true
        },
        "NCHILD": {},
        "SEX": {},
        "AGE": {},
        "BIRTHQTR": {},
        "MARST": {},
        "BIRTHYR": {},
        "RACE": {},
        "BPL": {},
        "FBPL": {},
        "HIGRADE": {},
        "EDUC": {},
        "EMPSTAT": {},
        "LABFORCE": {},
        "OCC": {},
        "OCC1950": {},
        "OCC1990": {},
        "OCC2010": {},
        "IND": {},
        "IND1950": {},
        "IND1990": {},
        "WKSWORK2": {},
        "HRSWORK2": {},
        "INCTOT": {},
        "FTOTINC": {},
        "INCWAGE": {},
        "INCBUSFM": {},
        "INCOTHER": {},
        "MIGRATE5": {},
        "MOVEDIN": {},
        "QEMPSTAT": {},
        "QOCC": {},
        "QIND": {},
        "QINCWAGE": {}
    },
    "download_links": {},
    "number": 68,
    "status": "completed",
    "collection": "usa","api_version": "beta"
}