="                    ",="(1)",="(2)",="(3)"
="                    ",="b/se",="b/se",="b/se"
="station_1950        ",="17.342",="16.495",="19.480"
="                    ",="(8.750)",="(7.907)",="(8.398)"
="1915 x TV           ",="",="",="8.284"
="                    ",="",="",="(5.632)"
="1960 x TV           ",="",="",="2.455"
="                    ",="",="",="(2.131)"
="1970 x TV           ",="",="",="6.380"
="                    ",="",="",="(2.332)"
="Observations        ",="912",="1008",="1008"
