="",="",="",=""
="",="count",="mean",="sd"
="Local TV Stations",="2888",="0.021",=".2459713"
="Local Filming Cost",="2888",="0.14",="1.36183"
="TV signal",="2888",="0.60",=".4897553"
="Observations",="2888",="",=""
="",="",="",=""
="",="count",="mean",="sd"
="Employment in Performance Entertainment",="2888",="177.3",="935.7929"
="Employment in Leisure Activities",="2888",="2468.7",="8540.424"
="Observations",="2888",="",=""
="",="",="",=""
="",="count",="mean",="sd"
="99th Wage Percentile",="1435",="5703.9",="4575.766"
="Observations",="1435",="",=""
="",="",="",=""
="",="count",="mean",="sd"
="people in CZ",="2888",="229.7",="658.1171"
="(sum) workerTOT",="2888",="86.9",="264.7724"
="median income",="2887",="1697.5",="747.0335"
="population density",="2888",="2.50",="7.813767"
="urban_place",="2888",="16.9",="37.47948"
="non white",="2888",="9.61",="13.49786"
="men",="2888",="50.2",="1.604903"
="median age",="2888",="27.4",="3.274737"
="Observations",="2888",="",=""
